Douglas Allison 52.5
Evans Lynda 30
Fonda Jane 33.75
Honey Susie 58.5
Jones Beth 0
Lamb Mary 121
Long Kathy 40
Lopez Jennifer 15
Minelli Liza 61.25
Streap Meryl 24
Wright Anna 32
Total:
---------> Mujeres: 11
---------> Salarios: 468
---------> Promedio: 42.5455
