Rather Dan 30
Ford Mark 100
Carlson Johnny 105
Lopez Danny 16.45
Harrison George 23
Star Ringo 12
Johnson Magic 20
Ramirez Blondy 0
Church Henry 36
Total:
---------> Hombres: 9
---------> Salarios: 342.45
---------> Promedio: 38.05
